a=1;
b=4;
sz=8.0;
hh= 1.0/sz;
Point(1) = {0, 0, 0, hh};
Point(2) = {a, 0, 0, hh};
Point(3) = {0, a, 0, hh};
Point(4) = {-a, 0, 0, hh};
Point(5) = {0, -a, 0, hh};
Point(6) = {0, 0, 0, hh};
Point(7) = {b, 0, 0, hh};
Point(8) = {0, b, 0, hh};
Point(9) = {-b, 0, 0, hh};
Point(10) = {0, -b, 0, hh};
Circle(1) = {2, 1, 3};
Circle(2) = {3, 1, 4};
Circle(3) = {4, 1, 5};
Circle(4) = {5, 1, 2};
Circle(5) = {8, 1, 7};
Circle(6) = {7, 1, 10};
Circle(7) = {8, 1, 9};
Circle(8) = {10, 1, 9};
Line Loop(11) = {5, 6, 8, -7, -4, -3, -2, -1};
Plane Surface(11) = {11};
